,combo,fold,fit_time,score_time,test_precision,test_recall,test_mcc,test_average_precision,test_roc_auc
0,rskf-base-lr,0,6.39616847038269,0.17959046363830566,0.8596491228070176,0.5568181818181818,0.6914549431372676,0.7222453648216474,0.9515234706674388
1,rskf-base-lr,1,6.601815462112427,0.19906353950500488,0.9019607843137255,0.5287356321839081,0.6902082858837637,0.7445612580148986,0.9878245546420584
2,rskf-base-lr,2,6.454962491989136,0.1859283447265625,0.8676470588235294,0.6781609195402298,0.7667339504637305,0.8238780638055522,0.9895932294902219
3,rskf-base-lr,3,6.217273712158203,0.1918036937713623,0.8636363636363636,0.6551724137931034,0.7518610577248516,0.745111717317024,0.9740363024162232
4,rskf-base-lr,4,6.369241237640381,0.18249940872192383,0.873015873015873,0.625,0.7383059901239847,0.7146370321397364,0.9654638891405407
5,rskf-base-lr,5,5.911078214645386,0.1725454330444336,0.8461538461538461,0.625,0.7268274349208125,0.7070764184383236,0.9806410957833444
6,rskf-base-lr,6,5.8958580493927,0.16715240478515625,0.86,0.4942528735632184,0.6515484141205065,0.7280377804109455,0.9466082543549829
7,rskf-base-lr,7,6.732022523880005,0.2907443046569824,0.9016393442622951,0.632183908045977,0.7546530111341168,0.7559644870263341,0.9619421599528892
8,rskf-base-lr,8,4.8824238777160645,0.18482565879821777,0.8307692307692308,0.6206896551724138,0.7176847425749129,0.7295325357896328,0.9843608716568677
9,rskf-base-lr,9,5.163767099380493,0.20124506950378418,0.9206349206349206,0.6590909090909091,0.7786565654201055,0.8161805684391579,0.9840941953683029
10,rskf-base-lr,10,5.150282382965088,0.15141510963439941,0.84375,0.6136363636363636,0.7191546904701969,0.7459825851800754,0.9783116591291001
11,rskf-base-lr,11,5.162570476531982,0.13589239120483398,0.8852459016393442,0.6206896551724138,0.7409061730164284,0.7593676290686325,0.9714581921200875
12,rskf-base-lr,12,5.029533624649048,0.1422863006591797,0.8461538461538461,0.632183908045977,0.7310024055940387,0.730644317650709,0.9529492063534843
13,rskf-base-lr,13,5.314557790756226,0.08287882804870605,0.9516129032258065,0.6781609195402298,0.803069164824662,0.8098297251092891,0.9819983712469843
14,rskf-base-lr,14,5.261233568191528,0.0906836986541748,0.8301886792452831,0.5,0.6438314272486958,0.6986933972156619,0.9778162953173212
15,rskf-base-rf,0,188.74642038345337,1.4605610370635986,0.9014084507042254,0.7272727272727273,0.8093859472780448,0.7948899821280642,0.9474734349631766
16,rskf-base-rf,1,204.89349341392517,1.1200332641601562,0.953125,0.7011494252873564,0.8172338460197484,0.8311199235611149,0.9472173522836456
17,rskf-base-rf,2,208.38302969932556,0.9111034870147705,0.96,0.8275862068965517,0.8911700159658562,0.8891630280229501,0.9590475972299519
18,rskf-base-rf,3,204.2664487361908,0.9516444206237793,0.9857142857142858,0.7931034482758621,0.8840109121011877,0.8593332433718209,0.9415189626649022
19,rskf-base-rf,4,197.67647051811218,0.9656352996826172,0.9705882352941176,0.75,0.8529835743511295,0.7900113350843719,0.9134700957638997
20,rskf-base-rf,5,205.49381613731384,0.9660909175872803,0.9452054794520548,0.7840909090909091,0.8606754125251268,0.8329044665143347,0.9363322841135573
21,rskf-base-rf,6,176.70627856254578,0.9755160808563232,0.9264705882352942,0.7241379310344828,0.8188177859853848,0.8222444439134858,0.9357540933312312
22,rskf-base-rf,7,201.28677010536194,0.9458560943603516,0.9538461538461539,0.7126436781609196,0.8242260467279191,0.7997294199211396,0.9297824855597523
23,rskf-base-rf,8,211.04159259796143,0.8309552669525146,0.9857142857142858,0.7931034482758621,0.8840109121011877,0.8779182105115314,0.9531836821047839
24,rskf-base-rf,9,206.0984001159668,0.7234177589416504,0.9583333333333334,0.7840909090909091,0.866644845193084,0.8533425685412768,0.9534723073397674
25,rskf-base-rf,10,198.62385749816895,0.6908667087554932,0.8831168831168831,0.7727272727272727,0.8258034607117238,0.8370933792767077,0.9420606199752024
26,rskf-base-rf,11,198.89413952827454,0.524625301361084,0.9714285714285714,0.7816091954022989,0.8711770642369753,0.8307523844264735,0.9413815113624164
27,rskf-base-rf,12,193.88458681106567,0.5927460193634033,0.9428571428571428,0.7586206896551724,0.8455093685085505,0.8303996331452903,0.9415618600485212
28,rskf-base-rf,13,196.35306787490845,0.414355993270874,0.9583333333333334,0.7931034482758621,0.8716205893830253,0.8534058013765913,0.9414039707255677
29,rskf-base-rf,14,194.34080410003662,0.5679333209991455,0.9305555555555556,0.7613636363636364,0.8414796287094569,0.8337317511829172,0.9421476400087396
30,rskf-base-knn,0,3.5198681354522705,703.8775126934052,0.9,0.7159090909090909,0.8023998732191907,0.7606560949509933,0.9146108590694154
31,rskf-base-knn,1,3.515798330307007,694.0451626777649,0.9264705882352942,0.7241379310344828,0.8188177859853848,0.8013240135210066,0.9308926518803203
32,rskf-base-knn,2,3.4459664821624756,692.8415772914886,0.9428571428571428,0.7586206896551724,0.8455093685085505,0.8605772256713782,0.9481751318252319
33,rskf-base-knn,3,3.450993061065674,716.8614284992218,0.9705882352941176,0.7586206896551724,0.8578806626266254,0.795127788472425,0.9194056982997812
34,rskf-base-knn,4,3.4867806434631348,730.3927612304688,0.9696969696969697,0.7272727272727273,0.8395566487962206,0.7631486881703919,0.8976120309727202
35,rskf-base-knn,5,3.2030858993530273,714.1823942661285,0.8904109589041096,0.7386363636363636,0.8106904106151336,0.7945769785421228,0.9259813787174176
36,rskf-base-knn,6,3.859373092651367,711.8088717460632,0.8873239436619719,0.7241379310344828,0.8012907179042584,0.7681766788884932,0.9193674050856084
37,rskf-base-knn,7,3.3076629638671875,693.8272516727448,0.96875,0.7126436781609196,0.8306550189373936,0.7560313992558256,0.9021834094481151
38,rskf-base-knn,8,4.050541639328003,584.7210893630981,0.9565217391304348,0.7586206896551724,0.8516278282429323,0.8117078059797818,0.9194338848005361
39,rskf-base-knn,9,3.7084078788757324,596.8465051651001,0.9571428571428572,0.7613636363636364,0.8534432458767776,0.8197382415302209,0.9260284493922163
40,rskf-base-knn,10,3.8300445079803467,589.2560179233551,0.8888888888888888,0.7272727272727273,0.8037318098144857,0.7979357665912484,0.9373433497703203
41,rskf-base-knn,11,5.143923044204712,566.3032853603363,0.9852941176470589,0.7701149425287356,0.8709016215070391,0.8466724180572514,0.9309667677787196
42,rskf-base-knn,12,5.604816913604736,576.9402062892914,0.9285714285714286,0.7471264367816092,0.8326755206443383,0.7616181622501479,0.9136434117928725
43,rskf-base-knn,13,5.211630821228027,578.0489819049835,1.0,0.7241379310344828,0.8507634833713503,0.8274649786196339,0.925200775476891
44,rskf-base-knn,14,4.1203413009643555,564.3011558055878,0.9571428571428572,0.7613636363636364,0.8534432458767776,0.7857954952048285,0.920305108651436
45,rskf-base-xgb,0,123.94993495941162,0.7789089679718018,0.8918918918918919,0.75,0.8175923508055768,0.8228007991473344,0.9737136251727482
46,rskf-base-xgb,1,125.96423101425171,1.0372533798217773,0.9848484848484849,0.7471264367816092,0.8575931826332105,0.8240243858623797,0.9750013812508339
47,rskf-base-xgb,2,127.46109294891357,0.7379724979400635,0.9342105263157895,0.8160919540229885,0.8729578284051429,0.8906560047009963,0.9908686967235832
48,rskf-base-xgb,3,125.46777153015137,0.6901452541351318,0.9726027397260274,0.8160919540229885,0.8907526061420541,0.8596907775085321,0.9808837130537862
49,rskf-base-xgb,4,126.50688886642456,1.363654375076294,0.9710144927536232,0.7613636363636364,0.859619038552546,0.820677406567168,0.9655384965192106
50,rskf-base-xgb,5,123.35937905311584,0.693077564239502,0.9583333333333334,0.7840909090909091,0.8666448491054798,0.8470446976335181,0.9730006501373104
51,rskf-base-xgb,6,122.02219676971436,0.7832210063934326,0.9253731343283582,0.7126436781609196,0.8118022975878957,0.8229456198702693,0.9616686049097067
52,rskf-base-xgb,7,127.480304479599,0.7031199932098389,0.9552238805970149,0.735632183908046,0.8380375820033287,0.8061956754371087,0.9613488958752481
53,rskf-base-xgb,8,105.57511878013611,0.5603499412536621,0.9859154929577465,0.8045977011494253,0.8904936262092633,0.8970359336465399,0.985947064179427
54,rskf-base-xgb,9,104.78351211547852,0.5237510204315186,0.96,0.8181818181818182,0.886082703098981,0.8538897678468271,0.9781062870927458
55,rskf-base-xgb,10,103.01704096794128,0.5991215705871582,0.9078947368421053,0.7840909090909091,0.843479017324906,0.8392368770638087,0.9672655420120151
56,rskf-base-xgb,11,103.00685167312622,0.492877721786499,1.0,0.7816091954022989,0.8839225803874526,0.8555372238454677,0.9723482566817728
57,rskf-base-xgb,12,102.83455801010132,0.44980359077453613,0.9436619718309859,0.7701149425287356,0.8522638083642612,0.8516603458351454,0.9590502923535301
58,rskf-base-xgb,13,102.34477543830872,0.3888671398162842,0.9583333333333334,0.7931034482758621,0.8716205893830253,0.8653809685968764,0.9818314981787701
59,rskf-base-xgb,14,101.6652262210846,0.47951483726501465,0.9565217391304348,0.75,0.8467661822192553,0.8398077594022266,0.977106859082649
60,kf-base-lr,0,4.240244150161743,0.16978883743286133,0.8545454545454545,0.5802469135802469,0.7037958986630956,0.7050049360512299,0.9318439405834802
61,kf-base-lr,1,4.378016948699951,0.1299898624420166,0.890625,0.6063829787234043,0.7345065739971279,0.7632469001599296,0.9858860799230947
62,kf-base-lr,2,4.286839962005615,0.1361532211303711,0.9076923076923077,0.6483516483516484,0.7668065161119422,0.8117245213320347,0.986904622324953
63,kf-base-lr,3,4.393242597579956,0.12980079650878906,0.8596491228070176,0.5384615384615384,0.6799353581615397,0.7190730351719571,0.9638849054958798
64,kf-base-lr,4,4.175824165344238,0.1399855613708496,0.8253968253968254,0.65,0.7321032822276061,0.7646826649401395,0.9903995311126306
65,kf-base-rf,0,144.8261423110962,0.950556755065918,0.9672131147540983,0.7283950617283951,0.8391439260865563,0.7760896311222796,0.9120948339176336
66,kf-base-rf,1,160.96679997444153,0.6236872673034668,0.9230769230769231,0.7659574468085106,0.840595178010064,0.834255767403369,0.9456523953685535
67,kf-base-rf,2,161.2553107738495,0.580233097076416,0.974025974025974,0.8241758241758241,0.8958085674871313,0.8802392691406254,0.960707317460747
68,kf-base-rf,3,151.9491274356842,0.7347419261932373,0.9565217391304348,0.7252747252747253,0.8326648964646054,0.8199054726512698,0.9274845313360967
69,kf-base-rf,4,159.78301787376404,0.7556226253509521,1.0,0.825,0.9081709143418097,0.8804885453822587,0.9614802920777571
70,kf-base-knn,0,2.877648115158081,533.0919799804688,0.9464285714285714,0.654320987654321,0.7866732972987315,0.758200305613491,0.894925331374812
71,kf-base-knn,1,2.943943977355957,526.3089418411255,0.9,0.7659574468085106,0.829995087838961,0.8025175755364368,0.9307163465676411
72,kf-base-knn,2,2.8709371089935303,546.6262352466583,0.9594594594594594,0.7802197802197802,0.8650018483610323,0.8310522152279635,0.9339550218023662
73,kf-base-knn,3,2.778984308242798,520.5401237010956,0.9264705882352942,0.6923076923076923,0.8005832991027871,0.7703250487738544,0.9119513386133153
74,kf-base-knn,4,2.6972827911376953,538.8576455116272,1.0,0.7875,0.887264636737021,0.8557114967839483,0.93740768779916
75,kf-base-xgb,0,96.35838985443115,0.5235400199890137,0.9508196721311475,0.7160493827160493,0.8248978759908189,0.7942814679777936,0.9624265403758094
76,kf-base-xgb,1,97.53569221496582,0.5178048610687256,0.9230769230769231,0.7659574468085106,0.840595178010064,0.850192088233077,0.9770887100697411
77,kf-base-xgb,2,97.93655228614807,0.4783816337585449,0.9620253164556962,0.8351648351648352,0.8961855782099538,0.89840456959151,0.9887580274495504
78,kf-base-xgb,3,96.40790820121765,0.4890439510345459,0.9577464788732394,0.7472527472527473,0.8457463260876512,0.8330395984989186,0.9751380444310448
79,kf-base-xgb,4,97.78522539138794,0.4986765384674072,1.0,0.8,0.8942874285612635,0.8954154945091891,0.9961448666601544
80,kf-ros-lr,0,5.835605144500732,0.1765453815460205,0.053557154276578735,0.8271604938271605,0.20696963427840537,0.6609050667977513,0.9504621941468674
81,kf-ros-lr,1,6.275237321853638,0.10119128227233887,0.0675990675990676,0.925531914893617,0.24668501471687854,0.7459748123119484,0.9809231625126766
82,kf-ros-lr,2,5.648823022842407,0.18208527565002441,0.060215053763440864,0.9230769230769231,0.23219504043797282,0.7954988733925175,0.9896775362832345
83,kf-ros-lr,3,6.413691997528076,0.16496539115905762,0.06744379683597003,0.8901098901098901,0.2416255060774823,0.7138671536600931,0.9691011103251694
84,kf-ros-lr,4,6.222463846206665,0.1474895477294922,0.05430847212165098,0.9375,0.22234452046453537,0.7153272498751041,0.9925095242746899
85,kf-ros-rf,0,152.17093920707703,0.7343871593475342,0.9365079365079365,0.7283950617283951,0.8256885852183574,0.8000013773660547,0.9306812494497688
86,kf-ros-rf,1,155.77229046821594,0.5248901844024658,0.9358974358974359,0.776595744680851,0.8522933484062708,0.8477242930032454,0.9509811075671601
87,kf-ros-rf,2,161.01452326774597,0.3732898235321045,0.972972972972973,0.7912087912087912,0.8772075546902411,0.8928224363464714,0.9661430920664125
88,kf-ros-rf,3,148.5498149394989,1.310654878616333,0.9459459459459459,0.7692307692307693,0.8527961420318235,0.8197430068082401,0.9327736397732881
89,kf-ros-rf,4,158.64206099510193,0.44135522842407227,1.0,0.8125,0.901255769962459,0.8837180762935957,0.9553114926247923
90,kf-ros-knn,0,6.539184093475342,613.5271492004395,0.7159090909090909,0.7777777777777778,0.745784909429704,0.6458899883976438,0.8948433243246177
91,kf-ros-knn,1,6.410707712173462,596.8102629184723,0.6956521739130435,0.851063829787234,0.7689836391697779,0.7155551827206378,0.9306381772920749
92,kf-ros-knn,2,6.5662078857421875,608.7133193016052,0.7155963302752294,0.8571428571428571,0.7827624956327675,0.7688717237510166,0.9339041288566439
93,kf-ros-knn,3,6.455498933792114,589.7404253482819,0.7211538461538461,0.8241758241758241,0.7705136714452452,0.7029642418654475,0.9119021635729339
94,kf-ros-knn,4,6.354024648666382,612.193142414093,0.6831683168316832,0.8625,0.7672159208690602,0.7610914260972717,0.9373352788903
95,kf-ros-xgb,0,198.6023986339569,1.2757220268249512,0.8732394366197183,0.7654320987654321,0.8172930570122706,0.7923208589118016,0.9516124636244463
96,kf-ros-xgb,1,197.7102553844452,1.2482123374938965,0.8681318681318682,0.8404255319148937,0.8539029971570625,0.8672618846435134,0.9722524019380991
97,kf-ros-xgb,2,199.3770821094513,0.8004715442657471,0.9294117647058824,0.8681318681318682,0.898075431326884,0.8918924282988153,0.987991519560285
98,kf-ros-xgb,3,196.76166319847107,0.9949681758880615,0.8928571428571429,0.8241758241758241,0.8575876915644732,0.8368738013049303,0.9729848648244708
99,kf-ros-xgb,4,200.1121633052826,0.6960279941558838,0.8947368421052632,0.85,0.8718871757674191,0.8886083826307613,0.9954640031259159
100,kf-smote-lr,0,7.449344635009766,0.12029194831848145,0.05267295597484277,0.8271604938271605,0.2051923940315728,0.6654534010686635,0.9470080089532402
101,kf-smote-lr,1,7.025073289871216,0.1875777244567871,0.06790123456790123,0.9361702127659575,0.24870582025598592,0.7513479081087889,0.981066195655202
102,kf-smote-lr,2,7.356582880020142,0.13220977783203125,0.058823529411764705,0.9230769230769231,0.22940744499634827,0.7911329949332292,0.9894436864187128
103,kf-smote-lr,3,7.950268030166626,0.19611811637878418,0.061456752655538696,0.8901098901098901,0.23031355356374347,0.7152431274162842,0.9653751883790576
104,kf-smote-lr,4,6.971548795700073,0.18529725074768066,0.053445850914205346,0.95,0.2220224679527115,0.7202755616923054,0.9917988668555241
105,kf-smote-rf,0,309.21999883651733,0.8070380687713623,0.9104477611940298,0.7530864197530864,0.8277952561764058,0.7960746475495356,0.9557855370919095
106,kf-smote-rf,1,308.3837049007416,0.8843531608581543,0.8666666666666667,0.8297872340425532,0.8477536990100726,0.8333403767156631,0.963665008064325
107,kf-smote-rf,2,307.49322271347046,1.1073017120361328,0.9620253164556962,0.8351648351648352,0.8961855782099538,0.8842214063208433,0.9723940127563061
108,kf-smote-rf,3,292.23232316970825,0.9100580215454102,0.891566265060241,0.8131868131868132,0.8512244648716769,0.821451058862116,0.9496908199862825
109,kf-smote-rf,4,309.2677209377289,0.8554863929748535,0.8589743589743589,0.8375,0.8479350095239635,0.8949208304479038,0.9845823971866758
110,kf-smote-knn,0,8.974982261657715,547.5506772994995,0.4507042253521127,0.7901234567901234,0.5959554770632879,0.5282726678618797,0.9006837940802971
111,kf-smote-knn,1,9.039051055908203,501.53055596351624,0.44505494505494503,0.8617021276595744,0.6183911098448273,0.6176216706551181,0.9356690770245947
112,kf-smote-knn,2,9.235620021820068,538.3559744358063,0.43243243243243246,0.8791208791208791,0.6156981645131634,0.6143286781763524,0.9445273333771399
113,kf-smote-knn,3,9.714561223983765,519.11274933815,0.4318181818181818,0.8351648351648352,0.599625635030113,0.5899414784820202,0.9280221283386954
114,kf-smote-knn,4,8.247429609298706,550.816374540329,0.42857142857142855,0.9,0.6202982056821833,0.6341209678886035,0.9620107209143304
115,kf-smote-xgb,0,220.5071702003479,0.6123099327087402,0.5925925925925926,0.7901234567901234,0.6837028768577917,0.7900017180959982,0.9366742764385303
116,kf-smote-xgb,1,221.06280493736267,0.6610016822814941,0.5436241610738255,0.8617021276595744,0.6837403550268112,0.8546365480650395,0.9767226034360386
117,kf-smote-xgb,2,221.2653512954712,0.6905522346496582,0.6060606060606061,0.8791208791208791,0.72938041326405,0.8814419421640003,0.9856101806506309
118,kf-smote-xgb,3,217.17201447486877,0.7909872531890869,0.47530864197530864,0.8461538461538461,0.6333746076948426,0.8252926264053578,0.970685448525758
119,kf-smote-xgb,4,221.39865922927856,0.5770974159240723,0.5590551181102362,0.8875,0.7038421478874425,0.885811389338663,0.9965881117514898
